{
  "__type__": "cc.AnimationClip",
  "_name": "idleFace(Login Scene)",
  "_objFlags": 0,
  "_native": "",
  "_duration": 0.5333333333333333,
  "sample": 60,
  "speed": 0.25,
  "wrapMode": 2,
  "curveData": {
    "comps": {
      "cc.Sprite": {
        "spriteFrame": [
          {
            "frame": 0,
            "value": {
              "__uuid__": "10cf1663-7455-4ca1-a0ff-586e1e823a8f"
            }
          },
          {
            "frame": 0.4166666666666667,
            "value": {
              "__uuid__": "2f30d0d3-5c78-49ee-b9a7-d81299c4b5c4"
            }
          },
          {
            "frame": 0.45,
            "value": {
              "__uuid__": "10cf1663-7455-4ca1-a0ff-586e1e823a8f"
            }
          },
          {
            "frame": 0.48333333333333334,
            "value": {
              "__uuid__": "2f30d0d3-5c78-49ee-b9a7-d81299c4b5c4"
            }
          },
          {
            "frame": 0.5166666666666667,
            "value": {
              "__uuid__": "10cf1663-7455-4ca1-a0ff-586e1e823a8f"
            }
          }
        ]
      }
    }
  },
  "events": []
}