{
  "__type__": "cc.SpriteFrame",
  "content": {
    "name": "stage2_tilemap2",
    "texture": "8ea2fe59-2d99-4575-8816-60783ac993f1",
    "atlas": "",
    "rect": [
      0,
      1960,
      6400,
      2840
    ],
    "offset": [
      0,
      -980
    ],
    "originalSize": [
      6400,
      4800
    ],
    "capInsets": [
      0,
      0,
      0,
      0
    ]
  }
}