{
  "__type__": "cc.SpriteFrame",
  "content": {
    "name": "piranha-plant-1",
    "texture": "d1b20759-b95e-49f8-973d-1ef3fd480ce6",
    "atlas": "",
    "rect": [
      19,
      11,
      23,
      34
    ],
    "offset": [
      0,
      -5.5
    ],
    "originalSize": [
      61,
      45
    ],
    "capInsets": [
      0,
      0,
      0,
      0
    ]
  }
}