{
  "__type__": "cc.SpriteFrame",
  "content": {
    "name": "stage1_hidden3",
    "texture": "278d4dd8-c03b-4e11-b646-1e43e0981527",
    "atlas": "",
    "rect": [
      11,
      0,
      244,
      179
    ],
    "offset": [
      5.5,
      0
    ],
    "originalSize": [
      255,
      179
    ],
    "capInsets": [
      0,
      0,
      0,
      0
    ]
  }
}