{
  "__type__": "cc.SpriteFrame",
  "content": {
    "name": "mini face 1",
    "texture": "3bccba33-50be-4fac-9c7f-564f11eebcb9",
    "atlas": "540c2ea9-303f-491b-ad5e-b0ba5bb6975e",
    "rect": [
      0,
      0,
      2048,
      2048
    ],
    "offset": [
      0,
      0
    ],
    "originalSize": [
      2048,
      2048
    ],
    "capInsets": [
      0,
      0,
      0,
      0
    ]
  }
}