{
  "__type__": "cc.AnimationClip",
  "_name": "splitFace",
  "_objFlags": 0,
  "_native": "",
  "_duration": 0.23333333333333334,
  "sample": 60,
  "speed": 1,
  "wrapMode": 1,
  "curveData": {
    "comps": {
      "cc.Sprite": {
        "spriteFrame": [
          {
            "frame": 0,
            "value": {
              "__uuid__": "ff50c29e-f76f-4e63-a577-adb7e0d973d6"
            }
          },
          {
            "frame": 0.21666666666666667,
            "value": {
              "__uuid__": "ff50c29e-f76f-4e63-a577-adb7e0d973d6"
            }
          }
        ]
      }
    }
  },
  "events": []
}