{
  "__type__": "cc.SpriteFrame",
  "content": {
    "name": "stage1_hidden2",
    "texture": "60df8c74-ad99-494c-8f3a-a6e9936ef3b2",
    "atlas": "",
    "rect": [
      0,
      0,
      361,
      162
    ],
    "offset": [
      0,
      0
    ],
    "originalSize": [
      361,
      162
    ],
    "capInsets": [
      0,
      0,
      0,
      0
    ]
  }
}