{
  "__type__": "cc.AnimationClip",
  "_name": "idleFace",
  "_objFlags": 0,
  "_native": "",
  "_duration": 0.5,
  "sample": 60,
  "speed": 0.25,
  "wrapMode": 2,
  "curveData": {
    "comps": {
      "cc.Sprite": {
        "spriteFrame": [
          {
            "frame": 0,
            "value": {
              "__uuid__": "da8591a7-80ad-4b6b-bbef-0098c7fa9269"
            }
          },
          {
            "frame": 0.25,
            "value": {
              "__uuid__": "3f4a6475-cc90-43cc-84b2-a6af16fea279"
            }
          },
          {
            "frame": 0.2833333333333333,
            "value": {
              "__uuid__": "da8591a7-80ad-4b6b-bbef-0098c7fa9269"
            }
          },
          {
            "frame": 0.48333333333333334,
            "value": {
              "__uuid__": "da8591a7-80ad-4b6b-bbef-0098c7fa9269"
            }
          }
        ]
      }
    }
  },
  "events": []
}