{
  "__type__": "cc.SpriteFrame",
  "content": {
    "name": "piranha-plant-attack-3",
    "texture": "a290637f-6dfa-4a79-bdcc-d540bad1f48c",
    "atlas": "",
    "rect": [
      22,
      11,
      25,
      34
    ],
    "offset": [
      4,
      -5.5
    ],
    "originalSize": [
      61,
      45
    ],
    "capInsets": [
      0,
      0,
      0,
      0
    ]
  }
}