{
  "__type__": "cc.AnimationClip",
  "_name": "mini face",
  "_objFlags": 0,
  "_native": "",
  "_duration": 0.9,
  "sample": 60,
  "speed": 0.5,
  "wrapMode": 2,
  "curveData": {
    "comps": {
      "cc.Sprite": {
        "spriteFrame": [
          {
            "frame": 0,
            "value": {
              "__uuid__": "a530fa03-1376-4e53-8135-85dcda6ca161"
            }
          },
          {
            "frame": 0.5833333333333334,
            "value": {
              "__uuid__": "3b8db065-e7c1-4ffa-bd1a-b62076dbaac2"
            }
          },
          {
            "frame": 0.6666666666666666,
            "value": {
              "__uuid__": "a530fa03-1376-4e53-8135-85dcda6ca161"
            }
          },
          {
            "frame": 0.8833333333333333,
            "value": {
              "__uuid__": "a530fa03-1376-4e53-8135-85dcda6ca161"
            }
          }
        ]
      }
    }
  },
  "events": []
}